Applied Machine Learning
…
]

]
.pull-right-a-little[

```
## # A tibble: 2,199 x 2
##    fold  .pred
##    <chr> <dbl>
##  1 1      5.36
##  2 1      5.28
##  3 1      5.27
##  4 1      5.06
##  5 1      5.37
##  6 1      5.30
##  7 1      5.14
##  8 1      5.08
##  9 1      5.10
## 10 1      5.24
## # … with 2,189 more rows
```
…
prices <- map_dfr(
    knn_res$splits,  
    ~ assessment(.x) %>% select(Sale_Price)
  )  
```

]

]
.pull-right-a-little[

```
## # A tibble: 2,199 x 1
##    Sale_Price
##         <int>
##  1     216000
##  2     160000
##  3     216500
##  4     133000
##  5     254000
##  6     218500
##  7     108000
##  8     105000
##  9     132000
## 10     155000
## # … with 2,189 more rows
```
…
prices <- map_dfr(
    knn_res$splits,  
    ~ assessment(.x) %>% select(Sale_Price)
  ) %>% 
* mutate(Sale_Price = log10(Sale_Price))
```

]

]
.pull-right-a-little[

```
## # A tibble: 2,199 x 1
##    Sale_Price
##         <dbl>
##  1       5.33
##  2       5.20
##  3       5.34
##  4       5.12
##  5       5.40
##  6       5.34
##  7       5.03
##  8       5.02
##  9       5.12
## 10       5.19
## # … with 2,189 more rows
```
…
rmse_estimates <- knn_pred %>%
  bind_cols(prices)
```

]

]
.pull-right-a-little[

```
## # A tibble: 2,199 x 3
##    fold  .pred Sale_Price
##    <chr> <dbl>      <dbl>
##  1 1      5.36       5.33
##  2 1      5.28       5.20
##  3 1      5.27       5.34
##  4 1      5.06       5.12
##  5 1      5.37       5.40
##  6 1      5.30       5.34
##  7 1      5.14       5.03
##  8 1      5.08       5.02
##  9 1      5.10       5.12
## 10 1      5.24       5.19
## # … with 2,189 more rows
```
…
rmse_estimates <- knn_pred %>%
  bind_cols(prices) %>% 
* group_by(fold)
```

]

]
.pull-right-a-little[

```
## # A tibble: 2,199 x 3
## # Groups:   fold [10]
##    fold  .pred Sale_Price
##    <chr> <dbl>      <dbl>
##  1 1      5.36       5.33
##  2 1      5.28       5.20
##  3 1      5.27       5.34
##  4 1      5.06       5.12
##  5 1      5.37       5.40
##  6 1      5.30       5.34
##  7 1      5.14       5.03
##  8 1      5.08       5.02
##  9 1      5.10       5.12
## 10 1      5.24       5.19
## # … with 2,189 more rows
```
…
]

.pull-right[

```r
# results for the first fold:
knn_tune$.metrics[[1]]
```

```
## # A tibble: 150 x 5
##    neighbors weight_func .metric .estimator .estimate
##        <int> <chr>       <chr>   <chr>          <dbl>
##  1         1 biweight    rmse    standard      0.111 
##  2         2 biweight    rmse    standard      0.103 
##  3         3 biweight    rmse    standard      0.0982
##  4         4 biweight    rmse    standard      0.0962
##  5         5 biweight    rmse    standard      0.0950
##  6         6 biweight    rmse    standard      0.0940
##  7         7 biweight    rmse    standard      0.0925
##  8         8 biweight    rmse    standard      0.0923
##  9         9 biweight    rmse    standard      0.0926
## 10        10 biweight    rmse    standard      0.0929
## # … with 140 more rows
```
…
