Applied Machine Learning
…
---

# Getting the Values - Training <img src="images/recipes.png" class="title-hex">

Now that the recipe has been prepared, we can extract the processed training set from it, with all of the steps applied. To do that, we use `juice()`.

```r
# Extracts processed version of `ames_train`
juice(mod_rec_trained)
```

```
## # A tibble: 2,199 x 11
##    Longitude Latitude Sale_Price Neighborhood_Co… Neighborhood_Ol… Neighborhood_Ed… Neighborhood_So…
##        <dbl>    <dbl>      <dbl>            <dbl>            <dbl>            <dbl>            <dbl>
##  1     -93.6     42.1       5.24                0                0                0                0
##  2     -93.6     42.1       5.39                0                0                0                0
##  3     -93.6     42.1       5.28                0                0                0                0
##  4     -93.6     42.1       5.29                0                0                0                0
##  5     -93.6     42.1       5.33                0                0                0                0
##  6     -93.6     42.1       5.28                0                0                0                0
##  7     -93.6     42.1       5.37                0                0                0                0
##  8     -93.6     42.1       5.28                0                0                0                0
##  9     -93.6     42.1       5.25                0                0                0                0
## 10     -93.6     42.1       5.26                0                0                0                0
## # … with 2,189 more rows, and 4 more variables: Neighborhood_Northridge_Heights <dbl>,
## #   Neighborhood_Gilbert <dbl>, Neighborhood_Sawyer <dbl>, Neighborhood_other <dbl>
```

This is what you'd pass on to `fit()` your model.

---

# Getting the Values - Testing <img src="images/recipes.png" class="title-hex">

After model fitting, you'll eventually want to make predictions on _new data_. But first, you have to reapply all of the pre-processing steps on it. To do that, use `bake()`.

```r
bake(mod_rec_trained, new_data = ames_test)
```

```
## # A tibble: 731 x 11
##    Longitude Latitude Sale_Price Neighborhood_Co… Neighborhood_Ol… Neighborhood_Ed… Neighborhood_So…
##        <dbl>    <dbl>      <dbl>            <dbl>            <dbl>            <dbl>            <dbl>
##  1     -93.6     42.1       5.33                0                0                0                0
##  2     -93.6     42.1       5.02                0                0                0                0
##  3     -93.6     42.1       5.27                0                0                0                0
##  4     -93.6     42.1       5.60                0                0                0                0
##  5     -93.6     42.1       5.28                0                0                0                0
##  6     -93.6     42.1       5.17                0                0                0                0
##  7     -93.6     42.1       5.02                0                0                0                0
##  8     -93.7     42.1       5.46                0                0                0                0
##  9     -93.7     42.1       5.44                0                0                0                0
## 10     -93.7     42.1       5.33                0                0                0                0
## # … with 721 more rows, and 4 more variables: Neighborhood_Northridge_Heights <dbl>,
## #   Neighborhood_Gilbert <dbl>, Neighborhood_Sawyer <dbl>, Neighborhood_other <dbl>
```
…
