Applied Machine Learning
…
---

# Residual Analysis <img src="images/tune.png" class="title-hex">

Recall that the `save_pred = TRUE` option was used. That retains the held-out predictions for each resample and sub-model. Those are in a list column called `.predictions`. 

We can use `tidyr::unnest()` to get the results back or use this convenience function:

```r
glmn_pred <- collect_predictions(glmn_tune)
glmn_pred
```

```
## # A tibble: 26,880 x 6
##    id     .pred  .row penalty mixture ridership
##    <chr>  <dbl> <int>   <dbl>   <dbl>     <dbl>
##  1 Slice1  18.8  5461 0.001         0      19.6
##  2 Slice1  18.8  5461 0.00127       0      19.6
##  3 Slice1  18.8  5461 0.00162       0      19.6
##  4 Slice1  18.8  5461 0.00207       0      19.6
##  5 Slice1  18.8  5461 0.00264       0      19.6
##  6 Slice1  18.8  5461 0.00336       0      19.6
##  7 Slice1  18.8  5461 0.00428       0      19.6
##  8 Slice1  18.8  5461 0.00546       0      19.6
##  9 Slice1  18.8  5461 0.00695       0      19.6
## 10 Slice1  18.8  5461 0.00886       0      19.6
## # … with 26,870 more rows
```
…
